^C:\USERS\PRINZE\DOCUMENTS\CSC\SPM\C++\A12RECTANGLE\A12RECTANGLE\DEBUG\A12RECTANGLE.EXE.EMBED.MANIFEST.RES|C:\USERS\PRINZE\DOCUMENTS\CSC\SPM\C++\A12RECTANGLE\A12RECTANGLE\DEBUG\A12RECTANGLE.OBJ|C:\USERS\PRINZE\DOCUMENTS\CSC\SPM\C++\A12RECTANGLE\A12RECTANGLE\DEBUG\STDAFX.OBJ
/ERRORREPORT:PROMPT /OUT:"C:\Users\Prinze\Documents\CSC\SPM\C++\a12Rectangle\Debug\a12Rectangle.exe" /INCREMENTAL /NOLOGO kernel32.lib user32.lib gdi32.lib winspool.lib comdlg32.lib advapi32.lib shell32.lib ole32.lib oleaut32.lib uuid.lib odbc32.lib odbccp32.lib /MANIFEST /ManifestFile:"Debug\a12Rectangle.exe.intermediate.manifest" /MANIFESTUAC:"level='asInvoker' uiAccess='false'" /DEBUG /PDB:"C:\Users\Prinze\Documents\CSC\SPM\C++\a12Rectangle\Debug\a12Rectangle.pdb" /SUBSYSTEM:CONSOLE /TLBID:1 /DYNAMICBASE /NXCOMPAT /IMPLIB:"C:\Users\Prinze\Documents\CSC\SPM\C++\a12Rectangle\Debug\a12Rectangle.lib" /MACHINE:X86 Debug\a12Rectangle.exe.embed.manifest.res
Debug\a12Rectangle.obj
Debug\stdafx.obj
^C:\USERS\PRINZE\DOCUMENTS\CSC\HOMEWORK\C++\A12RECTANGLE\A12RECTANGLE\DEBUG\A12RECTANGLE.EXE.EMBED.MANIFEST.RES|C:\USERS\PRINZE\DOCUMENTS\CSC\HOMEWORK\C++\A12RECTANGLE\A12RECTANGLE\DEBUG\A12RECTANGLE.OBJ|C:\USERS\PRINZE\DOCUMENTS\CSC\HOMEWORK\C++\A12RECTANGLE\A12RECTANGLE\DEBUG\STDAFX.OBJ
/ERRORREPORT:PROMPT /OUT:"C:\Users\Prinze\Documents\CSC\Homework\C++\a12Rectangle\Debug\a12Rectangle.exe" /INCREMENTAL /NOLOGO kernel32.lib user32.lib gdi32.lib winspool.lib comdlg32.lib advapi32.lib shell32.lib ole32.lib oleaut32.lib uuid.lib odbc32.lib odbccp32.lib /MANIFEST /ManifestFile:"Debug\a12Rectangle.exe.intermediate.manifest" /MANIFESTUAC:"level='asInvoker' uiAccess='false'" /DEBUG /PDB:"C:\Users\Prinze\Documents\CSC\Homework\C++\a12Rectangle\Debug\a12Rectangle.pdb" /SUBSYSTEM:CONSOLE /TLBID:1 /DYNAMICBASE /NXCOMPAT /IMPLIB:"C:\Users\Prinze\Documents\CSC\Homework\C++\a12Rectangle\Debug\a12Rectangle.lib" /MACHINE:X86 Debug\a12Rectangle.exe.embed.manifest.res
Debug\a12Rectangle.obj
Debug\stdafx.obj
