^C:\USERS\PRINZE\DOCUMENTS\CSC\SPM\C++\A12RECTANGLE\A12RECTANGLE\DEBUG\A12RECTANGLE_MANIFEST.RC
C:\USERS\PRINZE\DOCUMENTS\CSC\SPM\C++\A12RECTANGLE\A12RECTANGLE\DEBUG\A12RECTANGLE.EXE.EMBED.MANIFEST.RES
^C:\USERS\PRINZE\DOCUMENTS\CSC\HOMEWORK\C++\A12RECTANGLE\A12RECTANGLE\DEBUG\A12RECTANGLE_MANIFEST.RC
C:\USERS\PRINZE\DOCUMENTS\CSC\HOMEWORK\C++\A12RECTANGLE\A12RECTANGLE\DEBUG\A12RECTANGLE.EXE.EMBED.MANIFEST.RES
