^C:\USERS\PRINZE\DOCUMENTS\CSC\HOMEWORK\C++\PROJECT_FAMILYTREE\PROJECT_FAMILYTREE\STDAFX.CPP
/c /ZI /nologo /W3 /WX- /Od /Oy- /D WIN32 /D _DEBUG /D _CONSOLE /D _UNICODE /D UNICODE /Gm /EHsc /RTC1 /MDd /GS /fp:precise /Zc:wchar_t /Zc:forScope /Yc"StdAfx.h" /Fp"Debug\Project_FamilyTree.pch" /Fo"Debug\\" /Fd"Debug\vc100.pdb" /Gd /TP /analyze- /errorReport:prompt C:\USERS\PRINZE\DOCUMENTS\CSC\HOMEWORK\C++\PROJECT_FAMILYTREE\PROJECT_FAMILYTREE\STDAFX.CPP
^C:\USERS\PRINZE\DOCUMENTS\CSC\HOMEWORK\C++\PROJECT_FAMILYTREE\PROJECT_FAMILYTREE\PROJECT_FAMILYTREE.CPP
/c /ZI /nologo /W3 /WX- /Od /Oy- /D WIN32 /D _DEBUG /D _CONSOLE /D _UNICODE /D UNICODE /Gm /EHsc /RTC1 /MDd /GS /fp:precise /Zc:wchar_t /Zc:forScope /Yu"StdAfx.h" /Fp"Debug\Project_FamilyTree.pch" /Fo"Debug\\" /Fd"Debug\vc100.pdb" /Gd /TP /analyze- /errorReport:prompt C:\USERS\PRINZE\DOCUMENTS\CSC\HOMEWORK\C++\PROJECT_FAMILYTREE\PROJECT_FAMILYTREE\PROJECT_FAMILYTREE.CPP
