^C:\USERS\PRINZE\DOCUMENTS\CSC\HOMEWORK\C++\PROJECT_FAMILYTREE\PROJECT_FAMILYTREE\STDAFX.CPP
C:\USERS\PRINZE\DOCUMENTS\CSC\HOMEWORK\C++\PROJECT_FAMILYTREE\PROJECT_FAMILYTREE\DEBUG\PROJECT_FAMILYTREE.PCH
C:\USERS\PRINZE\DOCUMENTS\CSC\HOMEWORK\C++\PROJECT_FAMILYTREE\PROJECT_FAMILYTREE\DEBUG\STDAFX.OBJ
C:\USERS\PRINZE\DOCUMENTS\CSC\HOMEWORK\C++\PROJECT_FAMILYTREE\PROJECT_FAMILYTREE\DEBUG\VC100.PDB
^C:\USERS\PRINZE\DOCUMENTS\CSC\HOMEWORK\C++\PROJECT_FAMILYTREE\PROJECT_FAMILYTREE\PROJECT_FAMILYTREE.CPP
C:\USERS\PRINZE\DOCUMENTS\CSC\HOMEWORK\C++\PROJECT_FAMILYTREE\PROJECT_FAMILYTREE\DEBUG\PROJECT_FAMILYTREE.OBJ
C:\USERS\PRINZE\DOCUMENTS\CSC\HOMEWORK\C++\PROJECT_FAMILYTREE\PROJECT_FAMILYTREE\DEBUG\VC100.PDB
