^C:\USERS\PRINZE\DOCUMENTS\CSC\HOMEWORK\C++\PROJECT_FAMILYTREE\PROJECT_FAMILYTREE\DEBUG\PROJECT_FAMILYTREE.EXE.EMBED.MANIFEST.RES|C:\USERS\PRINZE\DOCUMENTS\CSC\HOMEWORK\C++\PROJECT_FAMILYTREE\PROJECT_FAMILYTREE\DEBUG\PROJECT_FAMILYTREE.OBJ|C:\USERS\PRINZE\DOCUMENTS\CSC\HOMEWORK\C++\PROJECT_FAMILYTREE\PROJECT_FAMILYTREE\DEBUG\STDAFX.OBJ
C:\USERS\PRINZE\DOCUMENTS\CSC\HOMEWORK\C++\PROJECT_FAMILYTREE\DEBUG\PROJECT_FAMILYTREE.ILK
C:\USERS\PRINZE\DOCUMENTS\CSC\HOMEWORK\C++\PROJECT_FAMILYTREE\DEBUG\PROJECT_FAMILYTREE.EXE
C:\USERS\PRINZE\DOCUMENTS\CSC\HOMEWORK\C++\PROJECT_FAMILYTREE\PROJECT_FAMILYTREE\DEBUG\PROJECT_FAMILYTREE.EXE.INTERMEDIATE.MANIFEST
C:\USERS\PRINZE\DOCUMENTS\CSC\HOMEWORK\C++\PROJECT_FAMILYTREE\DEBUG\PROJECT_FAMILYTREE.PDB
