^C:\USERS\PRINZE\DOCUMENTS\CSC\HOMEWORK\C++\PROJECT_FAMILYTREE\PROJECT_FAMILYTREE\DEBUG\PROJECT_FAMILYTREE.EXE.EMBED.MANIFEST.RES|C:\USERS\PRINZE\DOCUMENTS\CSC\HOMEWORK\C++\PROJECT_FAMILYTREE\PROJECT_FAMILYTREE\DEBUG\PROJECT_FAMILYTREE.OBJ|C:\USERS\PRINZE\DOCUMENTS\CSC\HOMEWORK\C++\PROJECT_FAMILYTREE\PROJECT_FAMILYTREE\DEBUG\STDAFX.OBJ
/ERRORREPORT:PROMPT /OUT:"C:\Users\Prinze\Documents\CSC\Homework\C++\Project_FamilyTree\Debug\Project_FamilyTree.exe" /INCREMENTAL /NOLOGO kernel32.lib user32.lib gdi32.lib winspool.lib comdlg32.lib advapi32.lib shell32.lib ole32.lib oleaut32.lib uuid.lib odbc32.lib odbccp32.lib /MANIFEST /ManifestFile:"Debug\Project_FamilyTree.exe.intermediate.manifest" /MANIFESTUAC:"level='asInvoker' uiAccess='false'" /DEBUG /PDB:"C:\Users\Prinze\Documents\CSC\Homework\C++\Project_FamilyTree\Debug\Project_FamilyTree.pdb" /SUBSYSTEM:CONSOLE /TLBID:1 /DYNAMICBASE /NXCOMPAT /IMPLIB:"C:\Users\Prinze\Documents\CSC\Homework\C++\Project_FamilyTree\Debug\Project_FamilyTree.lib" /MACHINE:X86 Debug\Project_FamilyTree.exe.embed.manifest.res
Debug\Project_FamilyTree.obj
Debug\stdafx.obj
